<?xml version="1.0" encoding="utf-8"?>
<!-- Generator: Adobe Illustrator 20.1.0, SVG Export Plug-In . SVG Version: 6.00 Build 0)  -->
<svg version="1.1" id="Capa_1" xmlns="http://www.w3.org/2000/svg" xmlns:xlink="http://www.w3.org/1999/xlink" x="0px" y="0px"
	 viewBox="0 0 95 50" style="enable-background:new 0 0 95 50;" xml:space="preserve">
<style type="text/css">
	.st0{fill:#FFFFFF;}
	.st1{fill:none;stroke:#FFFFFF;stroke-width:0.654;}
	.st2{clip-path:url(#SVGID_2_);}
	.st3{fill:#712E88;}
	.st4{fill:none;stroke:#844A97;stroke-width:5.163000e-02;}
	.st5{fill:none;stroke:#844A97;stroke-width:5.169838e-02;}
	.st6{fill:none;stroke:#844A97;stroke-width:5.176677e-02;}
	.st7{fill:none;stroke:#844B98;stroke-width:5.183515e-02;}
	.st8{fill:none;stroke:#854B98;stroke-width:5.190353e-02;}
	.st9{fill:none;stroke:#854B98;stroke-width:5.197192e-02;}
	.st10{fill:none;stroke:#854C98;stroke-width:5.204030e-02;}
	.st11{fill:none;stroke:#854C98;stroke-width:5.210869e-02;}
	.st12{fill:none;stroke:#864C99;stroke-width:5.217707e-02;}
	.st13{fill:none;stroke:#864D99;stroke-width:5.224546e-02;}
	.st14{fill:none;stroke:#864D99;stroke-width:5.231384e-02;}
	.st15{fill:none;stroke:#864E99;stroke-width:5.238222e-02;}
	.st16{fill:none;stroke:#864E99;stroke-width:5.245061e-02;}
	.st17{fill:none;stroke:#874E9A;stroke-width:5.251899e-02;}
	.st18{fill:none;stroke:#874F9A;stroke-width:5.258738e-02;}
	.st19{fill:none;stroke:#874F9A;stroke-width:5.265576e-02;}
	.st20{fill:none;stroke:#874F9A;stroke-width:5.272415e-02;}
	.st21{fill:none;stroke:#87509B;stroke-width:5.279253e-02;}
	.st22{fill:none;stroke:#88509B;stroke-width:5.286092e-02;}
	.st23{fill:none;stroke:#88509B;stroke-width:5.292930e-02;}
	.st24{fill:none;stroke:#88519B;stroke-width:5.299768e-02;}
	.st25{fill:none;stroke:#88519B;stroke-width:5.306607e-02;}
	.st26{fill:none;stroke:#89519C;stroke-width:5.313445e-02;}
	.st27{fill:none;stroke:#89529C;stroke-width:5.320283e-02;}
	.st28{fill:none;stroke:#89529C;stroke-width:5.327122e-02;}
	.st29{fill:none;stroke:#89529C;stroke-width:5.333960e-02;}
	.st30{fill:none;stroke:#89539C;stroke-width:5.340799e-02;}
	.st31{fill:none;stroke:#8A539D;stroke-width:5.347637e-02;}
	.st32{fill:none;stroke:#8A539D;stroke-width:5.354476e-02;}
	.st33{fill:none;stroke:#8A549D;stroke-width:5.361314e-02;}
	.st34{fill:none;stroke:#8A549D;stroke-width:5.368152e-02;}
	.st35{fill:none;stroke:#8B549D;stroke-width:5.374991e-02;}
	.st36{fill:none;stroke:#8B559E;stroke-width:5.381829e-02;}
	.st37{fill:none;stroke:#8B559E;stroke-width:5.388667e-02;}
	.st38{fill:none;stroke:#8B559E;stroke-width:5.395506e-02;}
	.st39{fill:none;stroke:#8B569E;stroke-width:5.402344e-02;}
	.st40{fill:none;stroke:#8C569F;stroke-width:5.409183e-02;}
	.st41{fill:none;stroke:#8C569F;stroke-width:5.416021e-02;}
	.st42{fill:none;stroke:#8C579F;stroke-width:5.422860e-02;}
	.st43{fill:none;stroke:#8C579F;stroke-width:5.429698e-02;}
	.st44{fill:none;stroke:#8C579F;stroke-width:5.436536e-02;}
	.st45{fill:none;stroke:#8D58A0;stroke-width:5.443375e-02;}
	.st46{fill:none;stroke:#8D58A0;stroke-width:5.450213e-02;}
	.st47{fill:none;stroke:#8D58A0;stroke-width:5.457051e-02;}
	.st48{fill:none;stroke:#8D59A0;stroke-width:5.463890e-02;}
	.st49{fill:none;stroke:#8E59A0;stroke-width:5.470729e-02;}
	.st50{fill:none;stroke:#8E5AA1;stroke-width:5.477567e-02;}
	.st51{fill:none;stroke:#8E5AA1;stroke-width:5.484405e-02;}
	.st52{fill:none;stroke:#8E5AA1;stroke-width:5.491244e-02;}
	.st53{fill:none;stroke:#8E5BA1;stroke-width:5.498082e-02;}
	.st54{fill:none;stroke:#8F5BA1;stroke-width:5.504921e-02;}
	.st55{fill:none;stroke:#8F5BA2;stroke-width:5.511759e-02;}
	.st56{fill:none;stroke:#8F5CA2;stroke-width:5.518597e-02;}
	.st57{fill:none;stroke:#8F5CA2;stroke-width:5.525436e-02;}
	.st58{fill:none;stroke:#905CA2;stroke-width:5.532274e-02;}
	.st59{fill:none;stroke:#905DA3;stroke-width:5.539113e-02;}
	.st60{fill:none;stroke:#905DA3;stroke-width:5.545951e-02;}
	.st61{fill:none;stroke:#905DA3;stroke-width:5.552790e-02;}
	.st62{fill:none;stroke:#905EA3;stroke-width:5.559628e-02;}
	.st63{fill:none;stroke:#915EA3;stroke-width:5.566466e-02;}
	.st64{fill:none;stroke:#915EA4;stroke-width:5.573305e-02;}
	.st65{fill:none;stroke:#915FA4;stroke-width:5.580143e-02;}
	.st66{fill:none;stroke:#915FA4;stroke-width:5.586981e-02;}
	.st67{fill:none;stroke:#925FA4;stroke-width:5.593820e-02;}
	.st68{fill:none;stroke:#9260A4;stroke-width:5.600658e-02;}
	.st69{fill:none;stroke:#9260A5;stroke-width:5.607497e-02;}
	.st70{fill:none;stroke:#9260A5;stroke-width:5.614335e-02;}
	.st71{fill:none;stroke:#9261A5;stroke-width:5.621174e-02;}
	.st72{fill:none;stroke:#9361A5;stroke-width:5.628012e-02;}
	.st73{fill:none;stroke:#9361A5;stroke-width:5.634850e-02;}
	.st74{fill:none;stroke:#9362A6;stroke-width:5.641689e-02;}
	.st75{fill:none;stroke:#9362A6;stroke-width:5.648527e-02;}
	.st76{fill:none;stroke:#9362A6;stroke-width:5.655365e-02;}
	.st77{fill:none;stroke:#9463A6;stroke-width:5.662204e-02;}
	.st78{fill:none;stroke:#9463A7;stroke-width:5.669042e-02;}
	.st79{fill:none;stroke:#9463A7;stroke-width:5.675881e-02;}
	.st80{fill:none;stroke:#9464A7;stroke-width:5.682719e-02;}
	.st81{fill:none;stroke:#9564A7;stroke-width:5.689558e-02;}
	.st82{fill:none;stroke:#9564A7;stroke-width:5.696396e-02;}
	.st83{fill:none;stroke:#9565A8;stroke-width:5.703234e-02;}
	.st84{fill:none;stroke:#9565A8;stroke-width:5.710073e-02;}
	.st85{fill:none;stroke:#9566A8;stroke-width:5.716911e-02;}
	.st86{fill:none;stroke:#9666A8;stroke-width:5.723750e-02;}
	.st87{fill:none;stroke:#9666A8;stroke-width:5.730588e-02;}
	.st88{fill:none;stroke:#9667A9;stroke-width:5.737427e-02;}
	.st89{fill:none;stroke:#9667A9;stroke-width:5.744265e-02;}
	.st90{fill:none;stroke:#9767A9;stroke-width:5.751103e-02;}
	.st91{fill:none;stroke:#9768A9;stroke-width:5.757942e-02;}
	.st92{fill:none;stroke:#9768A9;stroke-width:5.764780e-02;}
	.st93{fill:none;stroke:#9768AA;stroke-width:5.771619e-02;}
	.st94{fill:none;stroke:#9769AA;stroke-width:5.778457e-02;}
	.st95{fill:none;stroke:#9869AA;stroke-width:5.785295e-02;}
	.st96{fill:none;stroke:#9869AA;stroke-width:5.792134e-02;}
	.st97{fill:none;stroke:#986AAB;stroke-width:5.798972e-02;}
	.st98{fill:none;stroke:#986AAB;stroke-width:5.805811e-02;}
	.st99{fill:none;stroke:#986AAB;stroke-width:5.812649e-02;}
	.st100{fill:none;stroke:#996BAB;stroke-width:5.819488e-02;}
	.st101{fill:none;stroke:#996BAB;stroke-width:5.826326e-02;}
	.st102{fill:none;stroke:#996BAC;stroke-width:5.833164e-02;}
	.st103{fill:none;stroke:#996CAC;stroke-width:5.840003e-02;}
	.st104{fill:none;stroke:#9A6CAC;stroke-width:5.846841e-02;}
	.st105{fill:none;stroke:#9A6CAC;stroke-width:5.853679e-02;}
	.st106{fill:none;stroke:#9A6DAC;stroke-width:5.860518e-02;}
	.st107{fill:none;stroke:#9A6DAD;stroke-width:5.867356e-02;}
	.st108{fill:none;stroke:#9A6DAD;stroke-width:5.874195e-02;}
	.st109{fill:none;stroke:#9B6EAD;stroke-width:5.881033e-02;}
	.st110{fill:none;stroke:#9B6EAD;stroke-width:5.887872e-02;}
	.st111{fill:none;stroke:#9B6EAD;stroke-width:5.894710e-02;}
	.st112{fill:none;stroke:#9B6FAE;stroke-width:5.901548e-02;}
	.st113{fill:none;stroke:#9C6FAE;stroke-width:5.908387e-02;}
	.st114{fill:none;stroke:#9C6FAE;stroke-width:5.915225e-02;}
	.st115{fill:none;stroke:#9C70AE;stroke-width:5.922063e-02;}
	.st116{fill:none;stroke:#9C70AF;stroke-width:5.928902e-02;}
	.st117{fill:none;stroke:#9C70AF;stroke-width:5.935740e-02;}
	.st118{fill:none;stroke:#9D71AF;stroke-width:5.942579e-02;}
	.st119{fill:none;stroke:#9D71AF;stroke-width:5.949417e-02;}
	.st120{fill:none;stroke:#9D72AF;stroke-width:5.956256e-02;}
	.st121{fill:none;stroke:#9D72B0;stroke-width:5.963094e-02;}
	.st122{fill:none;stroke:#9D72B0;stroke-width:5.969932e-02;}
	.st123{fill:none;stroke:#9E73B0;stroke-width:5.976771e-02;}
	.st124{fill:none;stroke:#9E73B0;stroke-width:5.983609e-02;}
	.st125{fill:none;stroke:#9E73B0;stroke-width:5.990448e-02;}
	.st126{fill:none;stroke:#9E74B1;stroke-width:5.997286e-02;}
	.st127{fill:none;stroke:#9F74B1;stroke-width:6.004125e-02;}
	.st128{fill:none;stroke:#9F74B1;stroke-width:6.010963e-02;}
	.st129{fill:none;stroke:#9F75B1;stroke-width:6.017801e-02;}
	.st130{fill:none;stroke:#9F75B1;stroke-width:6.024640e-02;}
	.st131{fill:none;stroke:#9F75B2;stroke-width:6.031478e-02;}
	.st132{fill:none;stroke:#A076B2;stroke-width:6.038317e-02;}
	.st133{fill:none;stroke:#A076B2;stroke-width:6.045155e-02;}
	.st134{fill:none;stroke:#A076B2;stroke-width:6.051993e-02;}
	.st135{fill:none;stroke:#A077B3;stroke-width:6.058832e-02;}
	.st136{fill:none;stroke:#A177B3;stroke-width:6.065670e-02;}
	.st137{fill:none;stroke:#A177B3;stroke-width:6.072509e-02;}
	.st138{fill:none;stroke:#A178B3;stroke-width:6.079347e-02;}
	.st139{fill:none;stroke:#A178B3;stroke-width:6.086186e-02;}
	.st140{fill:none;stroke:#A178B4;stroke-width:6.093024e-02;}
	.st141{fill:none;stroke:#A279B4;stroke-width:6.099862e-02;}
	.st142{fill:none;stroke:#A279B4;stroke-width:6.106701e-02;}
	.st143{fill:none;stroke:#A279B4;stroke-width:6.113539e-02;}
	.st144{fill:none;stroke:#A27AB4;stroke-width:6.120377e-02;}
	.st145{fill:none;stroke:#A37AB5;stroke-width:6.127216e-02;}
	.st146{fill:none;stroke:#A37AB5;stroke-width:6.134054e-02;}
	.st147{fill:none;stroke:#A37BB5;stroke-width:6.140893e-02;}
	.st148{fill:none;stroke:#A37BB5;stroke-width:6.147731e-02;}
	.st149{fill:none;stroke:#A37BB6;stroke-width:6.154570e-02;}
	.st150{fill:none;stroke:#A47CB6;stroke-width:6.161408e-02;}
	.st151{fill:none;stroke:#A47CB6;stroke-width:6.168246e-02;}
	.st152{fill:none;stroke:#A47CB6;stroke-width:6.175085e-02;}
	.st153{fill:none;stroke:#A47DB6;stroke-width:6.181923e-02;}
	.st154{fill:none;stroke:#A47DB7;stroke-width:6.188761e-02;}
	.st155{fill:none;stroke:#A57EB7;stroke-width:6.195600e-02;}
	.st156{fill:none;}
	.st157{fill:#1D1D1B;stroke:#1D1D1B;stroke-width:0.2472;}
	.st158{fill:#FFDF00;}
	.st159{fill:none;stroke:#FFED95;stroke-width:2.073000e-02;}
	.st160{fill:none;stroke:#FFED94;stroke-width:2.073000e-02;}
	.st161{fill:none;stroke:#FFED93;stroke-width:2.073000e-02;}
	.st162{fill:none;stroke:#FFED92;stroke-width:2.073000e-02;}
	.st163{fill:none;stroke:#FFED91;stroke-width:2.073000e-02;}
	.st164{fill:none;stroke:#FFED90;stroke-width:2.073000e-02;}
	.st165{fill:none;stroke:#FFEC8F;stroke-width:2.073000e-02;}
	.st166{fill:none;stroke:#FFEC8E;stroke-width:2.073000e-02;}
	.st167{fill:none;stroke:#FFEC8D;stroke-width:2.073000e-02;}
	.st168{fill:none;stroke:#FFEC8C;stroke-width:2.073000e-02;}
	.st169{fill:none;stroke:#FFEC8B;stroke-width:2.073000e-02;}
	.st170{fill:none;stroke:#FFEC8A;stroke-width:2.073000e-02;}
	.st171{fill:none;stroke:#FFEC89;stroke-width:2.073000e-02;}
	.st172{fill:none;stroke:#FFEC88;stroke-width:2.073000e-02;}
	.st173{fill:none;stroke:#FFEB88;stroke-width:2.073000e-02;}
	.st174{fill:none;stroke:#FFEB87;stroke-width:2.073000e-02;}
	.st175{fill:none;stroke:#FFEB86;stroke-width:2.073000e-02;}
	.st176{fill:none;stroke:#FFEB85;stroke-width:2.073000e-02;}
	.st177{fill:none;stroke:#FFEB84;stroke-width:2.073000e-02;}
	.st178{fill:none;stroke:#FFEB83;stroke-width:2.073000e-02;}
	.st179{fill:none;stroke:#FFEB82;stroke-width:2.073000e-02;}
	.st180{fill:none;stroke:#FFEB81;stroke-width:2.073000e-02;}
	.st181{fill:none;stroke:#FFEA80;stroke-width:2.073000e-02;}
	.st182{fill:none;stroke:#FFEA7F;stroke-width:2.073000e-02;}
	.st183{fill:none;stroke:#FFEA7E;stroke-width:2.073000e-02;}
	.st184{fill:none;stroke:#FFEA7D;stroke-width:2.073000e-02;}
	.st185{fill:none;stroke:#FFEA7C;stroke-width:2.073000e-02;}
	.st186{fill:none;stroke:#FFEA7B;stroke-width:2.073000e-02;}
	.st187{fill:none;stroke:#FFEA7A;stroke-width:2.073000e-02;}
	.st188{fill:none;stroke:#FFEA79;stroke-width:2.073000e-02;}
	.st189{fill:none;stroke:#FFE979;stroke-width:2.073000e-02;}
	.st190{fill:none;stroke:#FFE978;stroke-width:2.073000e-02;}
	.st191{fill:none;stroke:#FFE977;stroke-width:2.073000e-02;}
	.st192{fill:none;stroke:#FFE976;stroke-width:2.073000e-02;}
	.st193{fill:none;stroke:#FFE975;stroke-width:2.073000e-02;}
	.st194{fill:none;stroke:#FFE974;stroke-width:2.073000e-02;}
	.st195{fill:none;stroke:#FFE973;stroke-width:2.073000e-02;}
	.st196{fill:none;stroke:#FFE972;stroke-width:2.073000e-02;}
	.st197{fill:none;stroke:#FFE971;stroke-width:2.073000e-02;}
	.st198{fill:none;stroke:#FFE870;stroke-width:2.073000e-02;}
	.st199{fill:none;stroke:#FFE86F;stroke-width:2.073000e-02;}
	.st200{fill:none;stroke:#FFE86E;stroke-width:2.073000e-02;}
	.st201{fill:none;stroke:#FFE86D;stroke-width:2.073000e-02;}
	.st202{fill:none;stroke:#FFE86C;stroke-width:2.073000e-02;}
	.st203{fill:none;stroke:#FFE86B;stroke-width:2.073000e-02;}
	.st204{fill:none;stroke:#FFE86A;stroke-width:2.073000e-02;}
	.st205{fill:none;stroke:#FFE769;stroke-width:2.073000e-02;}
	.st206{fill:none;stroke:#FFE768;stroke-width:2.073000e-02;}
	.st207{fill:none;stroke:#FFE767;stroke-width:2.073000e-02;}
	.st208{fill:none;stroke:#FFE766;stroke-width:2.073000e-02;}
	.st209{fill:none;stroke:#FFE765;stroke-width:2.073000e-02;}
	.st210{fill:none;stroke:#FFE764;stroke-width:2.073000e-02;}
	.st211{fill:none;stroke:#FFE763;stroke-width:2.073000e-02;}
	.st212{fill:none;stroke:#FFE762;stroke-width:2.073000e-02;}
	.st213{fill:#7D4091;stroke:#844A97;stroke-width:0.2587;}
	.st214{fill:#1D1D1B;}
	.st215{fill:none;stroke:#8A549D;stroke-width:2.073000e-02;}
	.st216{fill:none;stroke:#8C569E;stroke-width:2.073000e-02;}
	.st217{fill:none;stroke:#8D579F;stroke-width:2.073000e-02;}
	.st218{fill:none;stroke:#8E59A0;stroke-width:2.073000e-02;}
	.st219{fill:none;stroke:#8F5AA1;stroke-width:2.073000e-02;}
	.st220{fill:none;stroke:#905CA2;stroke-width:2.073000e-02;}
	.st221{fill:none;stroke:#915EA3;stroke-width:2.073000e-02;}
	.st222{fill:none;stroke:#925FA4;stroke-width:2.073000e-02;}
	.st223{fill:none;stroke:#9361A5;stroke-width:2.073000e-02;}
	.st224{fill:none;stroke:#9462A6;stroke-width:2.073000e-02;}
	.st225{fill:none;stroke:#9564A7;stroke-width:2.073000e-02;}
	.st226{fill:none;stroke:#9665A8;stroke-width:2.073000e-02;}
	.st227{fill:none;stroke:#9767A9;stroke-width:2.073000e-02;}
	.st228{fill:none;stroke:#9869AA;stroke-width:2.073000e-02;}
	.st229{fill:none;stroke:#996AAB;stroke-width:2.073000e-02;}
	.st230{fill:none;stroke:#9A6CAC;stroke-width:2.073000e-02;}
	.st231{fill:none;stroke:#9B6DAD;stroke-width:2.073000e-02;}
	.st232{fill:none;stroke:#9C6FAE;stroke-width:2.073000e-02;}
	.st233{fill:none;stroke:#9D70AF;stroke-width:2.073000e-02;}
	.st234{fill:none;stroke:#9E72B0;stroke-width:2.073000e-02;}
	.st235{fill:none;stroke:#9F74B0;stroke-width:2.073000e-02;}
	.st236{fill:none;stroke:#A075B1;stroke-width:2.073000e-02;}
	.st237{fill:none;stroke:#A177B2;stroke-width:2.073000e-02;}
	.st238{fill:none;stroke:#A278B3;stroke-width:2.073000e-02;}
	.st239{fill:none;stroke:#A37AB4;stroke-width:2.073000e-02;}
	.st240{fill:none;stroke:#A47BB5;stroke-width:2.073000e-02;}
	.st241{fill:none;stroke:#A57DB6;stroke-width:2.073000e-02;}
	.st242{fill:none;stroke:#A67FB7;stroke-width:2.073000e-02;}
	.st243{fill:none;stroke:#A780B8;stroke-width:2.073000e-02;}
	.st244{fill:none;stroke:#A882B9;stroke-width:2.073000e-02;}
	.st245{fill:none;stroke:#A983BA;stroke-width:2.073000e-02;}
	.st246{fill:none;stroke:#AA85BB;stroke-width:2.073000e-02;}
	.st247{fill:none;stroke:#AB86BC;stroke-width:2.073000e-02;}
	.st248{fill:none;stroke:#AC88BD;stroke-width:2.073000e-02;}
	.st249{fill:none;stroke:#AD8ABE;stroke-width:2.073000e-02;}
	.st250{fill:none;stroke:#AE8BBF;stroke-width:2.073000e-02;}
	.st251{fill:none;stroke:#AF8DC0;stroke-width:2.073000e-02;}
	.st252{fill:none;stroke:#B08EC1;stroke-width:2.073000e-02;}
	.st253{fill:none;stroke:#B190C2;stroke-width:2.073000e-02;}
	.st254{fill:none;stroke:#B291C3;stroke-width:2.073000e-02;}
	.st255{fill:none;stroke:#B393C4;stroke-width:2.073000e-02;}
	.st256{fill:none;stroke:#B495C5;stroke-width:2.073000e-02;}
	.st257{fill:none;stroke:#B596C6;stroke-width:2.073000e-02;}
	.st258{fill:none;stroke:#B698C7;stroke-width:2.073000e-02;}
	.st259{fill:none;stroke:#B799C8;stroke-width:2.073000e-02;}
	.st260{fill:none;stroke:#B89BC9;stroke-width:2.073000e-02;}
	.st261{fill:none;stroke:#B99CCA;stroke-width:2.073000e-02;}
	.st262{fill:none;stroke:#BB9ECB;stroke-width:2.073000e-02;}
	.st263{fill:none;stroke:#BCA0CC;stroke-width:2.073000e-02;}
	.st264{fill:none;stroke:#BDA1CD;stroke-width:2.073000e-02;}
	.st265{fill:none;stroke:#BEA3CD;stroke-width:2.073000e-02;}
	.st266{fill:none;stroke:#BFA4CE;stroke-width:2.073000e-02;}
	.st267{fill:none;stroke:#C0A6CF;stroke-width:2.073000e-02;}
	.st268{fill:none;stroke:#C1A7D0;stroke-width:2.073000e-02;}
	.st269{fill:none;stroke:#C2A9D1;stroke-width:2.073000e-02;}
	.st270{fill:none;stroke:#C3ABD2;stroke-width:2.073000e-02;}
	.st271{fill:none;stroke:#C4ACD3;stroke-width:2.073000e-02;}
	.st272{fill:none;stroke:#C5AED4;stroke-width:2.073000e-02;}
	.st273{fill:none;stroke:#C6AFD5;stroke-width:2.073000e-02;}
	.st274{fill:none;stroke:#C7B1D6;stroke-width:2.073000e-02;}
	.st275{fill:none;stroke:#C8B2D7;stroke-width:2.073000e-02;}
	.st276{fill:none;stroke:#C9B4D8;stroke-width:2.073000e-02;}
</style>
<g>
	<rect x="0.1" class="st0" width="94.8" height="50"/>
	<g>
		<rect x="2.4" y="2.3" class="st1" width="90.2" height="45.5"/>
		<g>
			<defs>
				<rect id="SVGID_1_" x="2.4" y="2.3" width="90.2" height="45.5"/>
			</defs>
			<clipPath id="SVGID_2_">
				<use xlink:href="#SVGID_1_"  style="overflow:visible;"/>
			</clipPath>
			<g class="st2">
				<rect x="2.4" y="18" class="st3" width="76.4" height="13.5"/>
				<rect x="2.4" y="2.3" class="st3" width="76.4" height="13.5"/>
				<rect x="80.7" y="2.2" class="st3" width="11.5" height="13.5"/>
				<rect x="2.4" y="33.8" class="st3" width="76.4" height="13.5"/>
				<rect x="80.7" y="33.8" class="st3" width="11.5" height="13.5"/>
				<g>
					<path class="st4" d="M-1.4,87.2C7.1-87.6,23.5,101.6,92-7.6"/>
					<path class="st5" d="M-1.4,87.1c8.8-174,25.3,13.7,93.3-94.6"/>
					<path class="st6" d="M-1.4,87.1C7.6-86.2,24.1,100,91.8-7.5"/>
					<path class="st7" d="M-1.4,87.1C7.9-85.6,24.4,99.2,91.7-7.4"/>
					<path class="st8" d="M-1.4,87c9.5-171.9,26.1,11.4,93-94.4"/>
					<path class="st9" d="M-1.3,87C8.5-84.2,25,97.6,91.6-7.3"/>
					<path class="st10" d="M-1.3,87C8.7-83.5,25.3,96.8,91.5-7.3"/>
					<path class="st11" d="M-1.3,87C9-82.8,25.6,96,91.5-7.2"/>
					<path class="st12" d="M-1.3,86.9C9.3-82.2,25.9,95.3,91.4-7.2"/>
					<path class="st13" d="M-1.3,86.9c10.8-168.4,27.5,7.6,92.6-94"/>
					<path class="st14" d="M-1.2,86.9c11.1-167.7,27.8,6.8,92.5-94"/>
					<path class="st15" d="M-1.2,86.8c11.4-167,28.1,6,92.4-93.9"/>
					<path class="st16" d="M-1.2,86.8C10.4-79.4,27.1,92.1,91.1-7"/>
					<path class="st17" d="M-1.2,86.8C10.7-78.8,27.5,91.3,91-7"/>
					<path class="st18" d="M-1.2,86.8C11-78.1,27.8,90.5,91-6.9"/>
					<path class="st19" d="M-1.1,86.7c12.4-164.1,29.2,3,92-93.6"/>
					<path class="st20" d="M-1.1,86.7C11.5-76.7,28.4,88.9,90.8-6.8"/>
					<path class="st21" d="M-1.1,86.7C11.8-76.1,28.7,88.1,90.8-6.8"/>
					<path class="st22" d="M-1.1,86.6c13.2-162,30,0.7,91.8-93.4"/>
					<path class="st23" d="M-1.1,86.6C12.4-74.7,29.3,86.5,90.6-6.7"/>
					<path class="st24" d="M-1,86.6C12.6-74,29.6,85.7,90.5-6.6"/>
					<path class="st25" d="M-1,86.6C12.9-73.3,29.9,85,90.5-6.6"/>
					<path class="st26" d="M-1,86.5C13.2-72.7,30.2,84.2,90.4-6.5"/>
					<path class="st27" d="M-1,86.5C13.5-72,30.5,83.4,90.3-6.5"/>
					<path class="st28" d="M-1,86.5C13.8-71.3,30.8,82.6,90.3-6.4"/>
					<path class="st29" d="M-0.9,86.4c15-157.1,32-4.7,91.1-92.8"/>
					<path class="st30" d="M-0.9,86.4C14.3-69.9,31.4,81,90.1-6.4"/>
					<path class="st31" d="M-0.9,86.4C14.6-69.3,31.7,80.2,90-6.3"/>
					<path class="st32" d="M-0.9,86.4C14.9-68.6,32,79.4,90-6.3"/>
					<path class="st33" d="M-0.9,86.3c16-154.2,33.1-7.7,90.8-92.5"/>
					<path class="st34" d="M-0.8,86.3C15.4-67.2,32.6,77.8,89.8-6.2"/>
					<path class="st35" d="M-0.8,86.3C15.7-66.5,32.9,77,89.8-6.1"/>
					<path class="st36" d="M-0.8,86.2c16.8-152.1,34-10,90.5-92.3"/>
					<path class="st37" d="M-0.8,86.2C16.3-65.2,33.5,75.4,89.6-6"/>
					<path class="st38" d="M-0.8,86.2C16.5-64.5,33.8,74.6,89.6-6"/>
					<path class="st39" d="M-0.7,86.2c17.6-150,34.8-12.3,90.2-92.1"/>
					<path class="st40" d="M-0.7,86.1c17.8-149.3,35.1-13.1,90.1-92"/>
					<path class="st41" d="M-0.7,86.1c18.1-148.6,35.4-13.8,90-91.9"/>
					<path class="st42" d="M-0.7,86.1C17.7-61.8,35,71.5,89.3-5.8"/>
					<path class="st43" d="M-0.7,86c18.6-147.2,36-15.4,89.9-91.8"/>
					<path class="st44" d="M-0.6,86C18.2-60.4,35.6,69.9,89.1-5.7"/>
					<path class="st45" d="M-0.6,86C18.5-59.8,35.9,69.1,89.1-5.7"/>
					<path class="st46" d="M-0.6,86C18.8-59.1,36.2,68.3,89-5.6"/>
					<path class="st47" d="M-0.6,85.9C19-58.4,36.5,67.5,88.9-5.6"/>
					<path class="st48" d="M-0.6,85.9C19.3-57.7,36.8,66.7,88.8-5.5"/>
					<path class="st49" d="M-0.5,85.9C19.6-57,37.1,65.9,88.8-5.5"/>
					<path class="st50" d="M-0.5,85.9C19.9-56.4,37.4,65.1,88.7-5.4"/>
					<path class="st51" d="M-0.5,85.8C20.2-55.7,37.7,64.3,88.6-5.4"/>
					<path class="st52" d="M-0.5,85.8C20.4-55,38,63.6,88.6-5.3"/>
					<path class="st53" d="M-0.5,85.8c21.2-140.1,38.8-23,89-91"/>
					<path class="st54" d="M-0.5,85.7C21-53.6,38.6,62,88.4-5.2"/>
					<path class="st55" d="M-0.4,85.7C21.3-53,38.9,61.2,88.4-5.2"/>
					<path class="st56" d="M-0.4,85.7c22-138,39.6-25.3,88.7-90.8"/>
					<path class="st57" d="M-0.4,85.7C21.8-51.6,39.5,59.6,88.2-5.1"/>
					<path class="st58" d="M-0.4,85.6C22.1-50.9,39.8,58.8,88.1-5"/>
					<path class="st59" d="M-0.4,85.6C22.4-50.2,40.1,58,88.1-5"/>
					<path class="st60" d="M-0.3,85.6C22.7-49.6,40.4,57.2,88-5"/>
					<path class="st61" d="M-0.3,85.5c23.3-134.4,41-29.1,88.2-90.4"/>
					<path class="st62" d="M-0.3,85.5C23.2-48.2,41,55.6,87.9-4.9"/>
					<path class="st63" d="M-0.3,85.5c23.8-133,41.6-30.6,88.1-90.3"/>
					<path class="st64" d="M-0.3,85.5c24-132.3,41.9-31.4,88-90.2"/>
					<path class="st65" d="M-0.2,85.4C24.1-46.2,41.9,53.2,87.6-4.7"/>
					<path class="st66" d="M-0.2,85.4C24.3-45.5,42.2,52.5,87.6-4.7"/>
					<path class="st67" d="M-0.2,85.4c24.8-130.2,42.7-33.7,87.7-90"/>
					<path class="st68" d="M-0.2,85.3c25.1-129.5,43-34.5,87.6-89.9"/>
					<path class="st69" d="M-0.2,85.3C25.2-43.5,43.1,50.1,87.4-4.5"/>
					<path class="st70" d="M-0.1,85.3c25.6-128.1,43.6-36,87.4-89.8"/>
					<path class="st71" d="M-0.1,85.3C25.7-42.1,43.7,48.5,87.2-4.4"/>
					<path class="st72" d="M-0.1,85.2C26-41.4,44,47.7,87.2-4.4"/>
					<path class="st73" d="M-0.1,85.2C26.3-40.7,44.3,46.9,87.1-4.3"/>
					<path class="st74" d="M-0.1,85.2C26.6-40.1,44.6,46.1,87-4.3"/>
					<path class="st75" d="M0,85.1c26.9-124.5,45-39.8,87-89.4"/>
					<path class="st76" d="M0,85.1C27.1-38.7,45.2,44.5,86.9-4.2"/>
					<path class="st77" d="M0,85.1C27.4-38,45.6,43.7,86.8-4.2"/>
					<path class="st78" d="M0,85.1C27.7-37.3,45.9,42.9,86.7-4.1"/>
					<path class="st79" d="M0,85C28-36.7,46.2,42.2,86.7-4.1"/>
					<path class="st80" d="M0.1,85C28.2-36,46.5,41.4,86.6-4"/>
					<path class="st81" d="M0.1,85C28.5-35.3,46.8,40.6,86.5-4"/>
					<path class="st82" d="M0.1,84.9c28.7-119.6,47-45.2,86.3-88.9"/>
					<path class="st83" d="M0.1,84.9C29.1-33.9,47.4,39,86.4-3.9"/>
					<path class="st84" d="M0.1,84.9C29.4-33.3,47.7,38.2,86.3-3.8"/>
					<path class="st85" d="M0.2,84.9C29.6-32.6,48,37.4,86.2-3.8"/>
					<path class="st86" d="M0.2,84.8c29.7-116.7,48.1-48.2,86-88.6"/>
					<path class="st87" d="M0.2,84.8c30-116,48.4-49,85.9-88.5"/>
					<path class="st88" d="M0.2,84.8C30.5-30.6,48.9,35,86-3.6"/>
					<path class="st89" d="M0.2,84.7C30.7-29.9,49.2,34.2,86-3.6"/>
					<path class="st90" d="M0.3,84.7C31-29.2,49.5,33.4,85.9-3.5"/>
					<path class="st91" d="M0.3,84.7c31-113.2,49.5-52,85.5-88.2"/>
					<path class="st92" d="M0.3,84.7C31.6-27.8,50.1,31.8,85.7-3.5"/>
					<path class="st93" d="M0.3,84.6c31.5-111.8,50.1-53.6,85.3-88"/>
					<path class="st94" d="M0.3,84.6c31.8-111.1,50.3-54.3,85.3-88"/>
					<path class="st95" d="M0.4,84.6C32.4-25.8,51,29.5,85.5-3.3"/>
					<path class="st96" d="M0.4,84.6C32.7-25.1,51.3,28.7,85.5-3.3"/>
					<path class="st97" d="M0.4,84.5c32.6-109,51.2-56.6,85-87.7"/>
					<path class="st98" d="M0.4,84.5C33.3-23.8,51.9,27.1,85.3-3.2"/>
					<path class="st99" d="M0.4,84.5C33.5-23.1,52.2,26.3,85.2-3.1"/>
					<path class="st100" d="M0.5,84.4c33.3-106.8,52-58.9,84.7-87.5"/>
					<path class="st101" d="M0.5,84.4C34.1-21.7,52.8,24.7,85.1-3"/>
					<path class="st102" d="M0.5,84.4C34.4-21,53.1,23.9,85-3"/>
					<path class="st103" d="M0.5,84.4C34.6-20.4,53.4,23.1,85-2.9"/>
					<path class="st104" d="M0.5,84.3c34.4-104,53.2-62,84.3-87.2"/>
					<path class="st105" d="M0.6,84.3C35.2-19,54,21.5,84.8-2.8"/>
					<path class="st106" d="M0.6,84.3C35.5-18.3,54.3,20.8,84.8-2.8"/>
					<path class="st107" d="M0.6,84.2c35.2-101.9,54-64.3,84.1-87"/>
					<path class="st108" d="M0.6,84.2C36-17,54.9,19.2,84.6-2.7"/>
					<path class="st109" d="M0.6,84.2C36.3-16.3,55.2,18.4,84.5-2.7"/>
					<path class="st110" d="M0.7,84.2C36.6-15.6,55.5,17.6,84.5-2.6"/>
					<path class="st111" d="M0.7,84.1C36.9-14.9,55.8,16.8,84.4-2.6"/>
					<path class="st112" d="M0.7,84.1C37.2-14.3,56.1,16,84.3-2.5"/>
					<path class="st113" d="M0.7,84.1C37.4-13.6,56.4,15.2,84.3-2.5"/>
					<path class="st114" d="M0.7,84c37-96.9,56-69.6,83.4-86.5"/>
					<path class="st115" d="M0.8,84C38-12.2,57,13.6,84.1-2.4"/>
					<path class="st116" d="M0.8,84C38.3-11.5,57.3,12.8,84-2.3"/>
					<path class="st117" d="M0.8,84C38.5-10.9,57.6,12,84-2.3"/>
					<path class="st118" d="M0.8,83.9c38-94.1,57.1-72.7,83.1-86.2"/>
					<path class="st119" d="M0.8,83.9c38.3-93.4,57.4-73.5,83-86.1"/>
					<path class="st120" d="M0.9,83.9C39.4-8.8,58.5,9.7,83.8-2.1"/>
					<path class="st121" d="M0.9,83.8c38.8-92,57.9-75,82.8-85.9"/>
					<path class="st122" d="M0.9,83.8C39.9-7.5,59.1,8.1,83.6-2"/>
					<path class="st123" d="M0.9,83.8C40.2-6.8,59.4,7.3,83.6-2"/>
					<path class="st124" d="M0.9,83.8C40.5-6.1,59.7,6.5,83.5-2"/>
					<path class="st125" d="M1,83.7C40.8-5.4,60,5.7,83.4-1.9"/>
					<path class="st126" d="M1,83.7C41.1-4.7,60.3,4.9,83.3-1.9"/>
					<path class="st127" d="M1,83.7C41.3-4.1,60.6,4.1,83.3-1.8"/>
					<path class="st128" d="M1,83.6C41.6-3.4,60.9,3.3,83.2-1.8"/>
					<path class="st129" d="M1,83.6C41.9-2.7,61.2,2.5,83.1-1.7"/>
					<path class="st130" d="M1.1,83.6C42.2-2,61.5,1.7,83.1-1.7"/>
					<path class="st131" d="M1.1,83.6C42.4-1.4,61.8,0.9,83-1.6"/>
					<path class="st132" d="M1.1,83.5C42.7-0.7,62.1,0.1,82.9-1.6"/>
					<path class="st133" d="M1.1,83.5C43,0,62.4-0.6,82.8-1.5"/>
					<path class="st134" d="M1.1,83.5C43.3,0.7,62.7-1.4,82.8-1.5"/>
					<path class="st135" d="M1.2,83.4C43.6,1.4,63-2.2,82.7-1.4"/>
					<path class="st136" d="M1.2,83.4C43.8,2,63.4-3,82.6-1.4"/>
					<path class="st137" d="M1.2,83.4C44.1,2.7,63.7-3.8,82.6-1.3"/>
					<path class="st138" d="M1.2,83.4C44.4,3.4,64-4.6,82.5-1.3"/>
					<path class="st139" d="M1.2,83.3C44.7,4.1,64.3-5.4,82.4-1.3"/>
					<path class="st140" d="M1.3,83.3C45,4.8,64.6-6.2,82.4-1.2"/>
					<path class="st141" d="M1.3,83.3C45.2,5.4,64.9-7,82.3-1.2"/>
					<path class="st142" d="M1.3,83.2C45.5,6.1,65.2-7.8,82.2-1.1"/>
					<path class="st143" d="M1.3,83.2C45.8,6.8,65.5-8.6,82.1-1.1"/>
					<path class="st144" d="M1.3,83.2C46.1,7.5,65.8-9.4,82.1-1"/>
					<path class="st145" d="M1.4,83.2C46.4,8.2,66.1-10.2,82-1"/>
					<path class="st146" d="M1.4,83.1c45.3-74.3,65-94.1,80.5-84.1"/>
					<path class="st147" d="M1.4,83.1c45.5-73.6,65.3-94.9,80.5-84"/>
					<path class="st148" d="M1.4,83.1C47.2,10.2,67-12.5,81.8-0.8"/>
					<path class="st149" d="M1.4,83.1c46-72.2,65.8-96.4,80.3-83.8"/>
					<path class="st150" d="M1.5,83C47.7,11.6,67.6-14.1,81.6-0.7"/>
					<path class="st151" d="M1.5,83C48,12.2,67.9-14.9,81.6-0.7"/>
					<path class="st152" d="M1.5,83c46.8-70.1,66.7-98.7,80-83.6"/>
					<path class="st153" d="M1.5,82.9c47.1-69.3,67-99.4,79.9-83.5"/>
					<path class="st154" d="M1.5,82.9C48.9,14.3,68.8-17.3,81.4-0.6"/>
					<path class="st155" d="M1.6,82.9c47.6-67.9,67.5-101,79.7-83.4"/>
				</g>
				<g>
					<path class="st4" d="M8.9,95.2c8.5-174.7,25.5,8.2,94.8-95.9"/>
					<path class="st5" d="M8.9,95.1c8.8-174,25.8,7.5,94.7-95.8"/>
					<path class="st6" d="M9,95.1c9-173.3,26.1,6.8,94.6-95.7"/>
					<path class="st7" d="M9,95c9.3-172.6,26.4,6.1,94.5-95.6"/>
					<path class="st8" d="M9,95c9.5-171.9,26.7,5.4,94.4-95.6"/>
					<path class="st9" d="M9,94.9c9.8-171.3,27,4.7,94.3-95.5"/>
					<path class="st10" d="M9.1,94.9c10-170.6,27.3,3.9,94.3-95.4"/>
					<path class="st11" d="M9.1,94.8C19.4-75,36.6,98.1,103.3-0.5"/>
					<path class="st12" d="M9.1,94.8c10.6-169.2,27.8,2.5,94.1-95.2"/>
					<path class="st13" d="M9.1,94.7c10.8-168.5,28.1,1.8,94-95.1"/>
					<path class="st14" d="M9.2,94.7c11.1-167.8,28.4,1.1,93.9-95"/>
					<path class="st15" d="M9.2,94.6C20.5-72.5,37.9,95,103-0.3"/>
					<path class="st16" d="M9.2,94.6c11.6-166.4,29-0.4,93.7-94.8"/>
					<path class="st17" d="M9.3,94.5c11.8-165.7,29.3-1.1,93.6-94.7"/>
					<path class="st18" d="M9.3,94.5c12.1-165,29.5-1.8,93.5-94.7"/>
					<path class="st19" d="M9.3,94.4c12.3-164.3,29.8-2.5,93.4-94.6"/>
					<path class="st20" d="M9.3,94.4c12.6-163.6,30.1-3.2,93.3-94.5"/>
					<path class="st21" d="M9.4,94.3c12.8-162.9,30.4-3.9,93.3-94.4"/>
					<path class="st22" d="M9.4,94.3C22.5-68,40.1,89.6,102.6,0"/>
					<path class="st23" d="M9.4,94.2c13.3-161.5,31-5.4,93.1-94.2"/>
					<path class="st24" d="M9.5,94.2c13.6-160.8,31.3-6.1,93-94.1"/>
					<path class="st25" d="M9.5,94.1C23.3-66,41,87.3,102.4,0.1"/>
					<path class="st26" d="M9.5,94c14.1-159.5,31.8-7.5,92.8-93.9"/>
					<path class="st27" d="M9.5,94c14.4-158.8,32.1-8.2,92.7-93.8"/>
					<path class="st28" d="M9.6,93.9C24.2-64.1,42,85,102.2,0.2"/>
					<path class="st29" d="M9.6,93.9c14.9-157.4,32.7-9.7,92.5-93.7"/>
					<path class="st30" d="M9.6,93.8c15.1-156.7,33-10.4,92.4-93.6"/>
					<path class="st31" d="M9.6,93.8C25-62.2,42.9,82.7,102,0.3"/>
					<path class="st32" d="M9.7,93.7C25.3-61.5,43.2,81.9,101.9,0.3"/>
					<path class="st33" d="M9.7,93.7C25.6-60.9,43.6,81.2,101.9,0.4"/>
					<path class="st34" d="M9.7,93.6C25.9-60.3,43.9,80.4,101.8,0.4"/>
					<path class="st35" d="M9.8,93.6c16.4-153.2,34.4-14,92-93.1"/>
					<path class="st36" d="M9.8,93.5C26.4-59,44.5,78.9,101.7,0.5"/>
					<path class="st37" d="M9.8,93.5c16.9-151.8,35-15.4,91.8-92.9"/>
					<path class="st38" d="M9.8,93.4C27-57.7,45.1,77.3,101.5,0.6"/>
					<path class="st39" d="M9.9,93.4C27.3-57.1,45.4,76.6,101.5,0.6"/>
					<path class="st40" d="M9.9,93.3C27.6-56.4,45.8,75.8,101.4,0.7"/>
					<path class="st41" d="M9.9,93.3C27.8-55.8,46.1,75,101.4,0.7"/>
					<path class="st42" d="M9.9,93.2c18.2-148.3,36.4-19,91.3-92.5"/>
					<path class="st43" d="M10,93.2C28.4-54.5,46.7,73.5,101.2,0.8"/>
					<path class="st44" d="M10,93.1c18.7-147,37-20.4,91.2-92.3"/>
					<path class="st45" d="M10,93.1C29-53.2,47.3,72,101.1,0.8"/>
					<path class="st46" d="M10.1,93C29.2-52.6,47.6,71.2,101,0.9"/>
					<path class="st47" d="M10.1,93C29.5-51.9,48,70.4,101,0.9"/>
					<path class="st48" d="M10.1,92.9C29.8-51.3,48.3,69.6,100.9,1"/>
					<path class="st49" d="M10.1,92.9C30.1-50.6,48.6,68.9,100.8,1"/>
					<path class="st50" d="M10.2,92.8C30.4-50,48.9,68.1,100.8,1"/>
					<path class="st51" d="M10.2,92.7c20.5-142.1,39-25.4,90.5-91.7"/>
					<path class="st52" d="M10.2,92.7C30.9-48.7,49.5,66.6,100.7,1.1"/>
					<path class="st53" d="M10.2,92.6c21-140.7,39.6-26.8,90.3-91.5"/>
					<path class="st54" d="M10.3,92.6C31.5-47.4,50.2,65,100.5,1.2"/>
					<path class="st55" d="M10.3,92.5C31.8-46.8,50.5,64.3,100.5,1.2"/>
					<path class="st56" d="M10.3,92.5c21.7-138.6,40.5-29,90.1-91.2"/>
					<path class="st57" d="M10.4,92.4c22-137.9,40.7-29.7,90-91.1"/>
					<path class="st58" d="M10.4,92.4c22.2-137.2,41-30.4,89.9-91"/>
					<path class="st59" d="M10.4,92.3C32.9-44.2,51.7,61.2,100.2,1.4"/>
					<path class="st60" d="M10.4,92.3C33.2-43.6,52,60.4,100.2,1.4"/>
					<path class="st61" d="M10.5,92.2c23-135.2,41.9-32.6,89.6-90.8"/>
					<path class="st62" d="M10.5,92.2C33.7-42.3,52.7,58.9,100,1.5"/>
					<path class="st63" d="M10.5,92.1C34-41.6,53,58.1,100,1.5"/>
					<path class="st64" d="M10.6,92.1C34.3-41,53.3,57.4,99.9,1.6"/>
					<path class="st65" d="M10.6,92c24-132.4,43-35.4,89.3-90.4"/>
					<path class="st66" d="M10.6,92C34.9-39.7,53.9,55.8,99.8,1.6"/>
					<path class="st67" d="M10.6,91.9c24.5-131,43.6-36.9,89.1-90.2"/>
					<path class="st68" d="M10.7,91.9c24.8-130.3,43.9-37.6,89-90.1"/>
					<path class="st69" d="M10.7,91.8c25-129.6,44.2-38.3,88.9-90"/>
					<path class="st70" d="M10.7,91.8c25.3-128.9,44.5-39,88.8-90"/>
					<path class="st71" d="M10.7,91.7C36.3-36.5,55.5,52,99.5,1.8"/>
					<path class="st72" d="M10.8,91.7C36.6-35.9,55.8,51.2,99.4,1.9"/>
					<path class="st73" d="M10.8,91.6c26-126.8,45.3-41.1,88.5-89.7"/>
					<path class="st74" d="M10.8,91.6C37.1-34.6,56.5,49.7,99.3,2"/>
					<path class="st75" d="M10.9,91.5C37.4-33.9,56.8,48.9,99.2,2"/>
					<path class="st76" d="M10.9,91.4C37.7-33.3,57.1,48.2,99.1,2"/>
					<path class="st77" d="M10.9,91.4c27.1-124,46.5-44,88.2-89.3"/>
					<path class="st78" d="M10.9,91.3C38.2-32,57.7,46.6,99,2.1"/>
					<path class="st79" d="M11,91.3C38.5-31.4,58,45.8,98.9,2.1"/>
					<path class="st80" d="M11,91.2c27.8-122,47.3-46.2,87.9-89.1"/>
					<path class="st81" d="M11,91.2c28.1-121.3,47.6-46.9,87.8-89"/>
					<path class="st82" d="M11,91.1C39.4-29.4,59,43.5,98.8,2.3"/>
					<path class="st83" d="M11.1,91.1C39.6-28.8,59.3,42.8,98.7,2.3"/>
					<path class="st84" d="M11.1,91C39.9-28.2,59.6,42,98.6,2.3"/>
					<path class="st85" d="M11.1,91C40.2-27.5,59.9,41.2,98.6,2.4"/>
					<path class="st86" d="M11.2,90.9C40.5-26.9,60.2,40.5,98.5,2.4"/>
					<path class="st87" d="M11.2,90.9C40.8-26.2,60.5,39.7,98.4,2.5"/>
					<path class="st88" d="M11.2,90.8C41.1-25.6,60.9,38.9,98.4,2.5"/>
					<path class="st89" d="M11.2,90.8C41.3-24.9,61.2,38.2,98.3,2.5"/>
					<path class="st90" d="M11.3,90.7c30.4-115,50.2-53.3,87-88.1"/>
					<path class="st91" d="M11.3,90.7c30.6-114.3,50.5-54,86.9-88.1"/>
					<path class="st92" d="M11.3,90.6C42.2-23,62.1,35.9,98.1,2.6"/>
					<path class="st93" d="M11.3,90.6C42.5-22.4,62.4,35.1,98.1,2.7"/>
					<path class="st94" d="M11.4,90.5C42.7-21.7,62.7,34.3,98,2.7"/>
					<path class="st95" d="M11.4,90.5C43-21.1,63.1,33.6,97.9,2.8"/>
					<path class="st96" d="M11.4,90.4C43.3-20.4,63.4,32.8,97.9,2.8"/>
					<path class="st97" d="M11.5,90.4C43.6-19.8,63.7,32,97.8,2.8"/>
					<path class="st98" d="M11.5,90.3C43.9-19.2,64,31.3,97.7,2.9"/>
					<path class="st99" d="M11.5,90.2C44.1-18.5,64.3,30.5,97.7,2.9"/>
					<path class="st100" d="M11.5,90.2C44.4-17.9,64.6,29.7,97.6,3"/>
					<path class="st101" d="M11.6,90.1C44.7-17.2,64.9,29,97.6,3"/>
					<path class="st102" d="M11.6,90.1C45-16.6,65.3,28.2,97.5,3"/>
					<path class="st103" d="M11.6,90c33.7-106,54-62.6,85.8-87"/>
					<path class="st104" d="M11.7,90C45.6-15.3,65.9,26.7,97.4,3.1"/>
					<path class="st105" d="M11.7,89.9c34.2-104.6,54.5-64,85.6-86.8"/>
					<path class="st106" d="M11.7,89.9C46.1-14,66.5,25.1,97.2,3.2"/>
					<path class="st107" d="M11.7,89.8C46.4-13.4,66.8,24.4,97.2,3.2"/>
					<path class="st108" d="M11.8,89.8C46.7-12.7,67.1,23.6,97.1,3.3"/>
					<path class="st109" d="M11.8,89.7C47-12.1,67.5,22.8,97,3.3"/>
					<path class="st110" d="M11.8,89.7C47.2-11.5,67.8,22,97,3.3"/>
					<path class="st111" d="M11.8,89.6C47.5-10.8,68.1,21.3,96.9,3.4"/>
					<path class="st112" d="M11.9,89.6c35.9-99.7,56.5-69.1,85-86.2"/>
					<path class="st113" d="M11.9,89.5c36.2-99,56.8-69.8,84.9-86.1"/>
					<path class="st114" d="M11.9,89.5C48.4-8.9,69,19,96.7,3.5"/>
					<path class="st115" d="M12,89.4C48.7-8.2,69.3,18.2,96.7,3.5"/>
					<path class="st116" d="M12,89.4c37-97,57.7-71.9,84.6-85.8"/>
					<path class="st117" d="M12,89.3C49.2-7,70,16.7,96.5,3.6"/>
					<path class="st118" d="M12,89.3C49.5-6.3,70.3,15.9,96.5,3.6"/>
					<path class="st119" d="M12.1,89.2C49.8-5.7,70.6,15.1,96.4,3.7"/>
					<path class="st120" d="M12.1,89.2C50.1-5,70.9,14.4,96.4,3.7"/>
					<path class="st121" d="M12.1,89.1C50.3-4.4,71.2,13.6,96.3,3.8"/>
					<path class="st122" d="M12.1,89.1C50.6-3.7,71.6,12.8,96.2,3.8"/>
					<path class="st123" d="M12.2,89c38.7-92.1,59.7-76.9,84-85.2"/>
					<path class="st124" d="M12.2,88.9c39-91.4,60-77.6,83.9-85.1"/>
					<path class="st125" d="M12.2,88.9C51.5-1.8,72.5,10.5,96,3.9"/>
					<path class="st126" d="M12.3,88.8C51.7-1.2,72.8,9.8,96,3.9"/>
					<path class="st127" d="M12.3,88.8C52-0.5,73.1,9,95.9,4"/>
					<path class="st128" d="M12.3,88.7C52.3,0.1,73.4,8.2,95.8,4"/>
					<path class="st129" d="M12.3,88.7C52.6,0.7,73.8,7.5,95.8,4.1"/>
					<path class="st130" d="M12.4,88.6C52.9,1.4,74.1,6.7,95.7,4.1"/>
					<path class="st131" d="M12.4,88.6C53.2,2,74.4,5.9,95.7,4.1"/>
					<path class="st132" d="M12.4,88.5C53.4,2.7,74.7,5.2,95.6,4.2"/>
					<path class="st133" d="M12.4,88.5C53.7,3.3,75,4.4,95.5,4.2"/>
					<path class="st134" d="M12.5,88.4C54,4,75.3,3.6,95.5,4.3"/>
					<path class="st135" d="M12.5,88.4C54.3,4.6,75.6,2.9,95.4,4.3"/>
					<path class="st136" d="M12.5,88.3C54.6,5.2,76,2.1,95.3,4.3"/>
					<path class="st137" d="M12.6,88.3C54.8,5.9,76.3,1.3,95.3,4.4"/>
					<path class="st138" d="M12.6,88.2C55.1,6.5,76.6,0.6,95.2,4.4"/>
					<path class="st139" d="M12.6,88.2C55.4,7.2,76.9-0.2,95.2,4.4"/>
					<path class="st140" d="M12.6,88.1C55.7,7.8,77.2-1,95.1,4.5"/>
					<path class="st141" d="M12.7,88.1C56,8.5,77.5-1.8,95,4.5"/>
					<path class="st142" d="M12.7,88C56.2,9.1,77.8-2.5,95,4.6"/>
					<path class="st143" d="M12.7,88C56.5,9.7,78.2-3.3,94.9,4.6"/>
					<path class="st144" d="M12.8,87.9c44.1-77.5,65.7-92,82.1-83.3"/>
					<path class="st145" d="M12.8,87.9c44.3-76.8,66-92.7,82-83.2"/>
					<path class="st146" d="M12.8,87.8C57.4,11.7,79.1-5.6,94.7,4.7"/>
					<path class="st147" d="M12.8,87.8c44.8-75.4,66.6-94.1,81.8-83"/>
					<path class="st148" d="M12.9,87.7C57.9,13,79.7-7.1,94.6,4.8"/>
					<path class="st149" d="M12.9,87.6C58.2,13.6,80-7.9,94.5,4.8"/>
					<path class="st150" d="M12.9,87.6C58.5,14.2,80.4-8.7,94.5,4.9"/>
					<path class="st151" d="M12.9,87.5c45.8-72.7,67.7-97,81.4-82.6"/>
					<path class="st152" d="M13,87.5c46.1-72,68-97.7,81.4-82.5"/>
					<path class="st153" d="M13,87.4C59.3,16.2,81.3-11,94.3,5"/>
					<path class="st154" d="M13,87.4C59.6,16.8,81.6-11.7,94.2,5"/>
					<path class="st155" d="M13.1,87.3C59.9,17.4,81.9-12.5,94.1,5.1"/>
				</g>
				<rect x="2.4" y="2.3" class="st156" width="76.4" height="13.4"/>
				<rect x="2.4" y="18" class="st156" width="76.4" height="13.5"/>
				<rect x="80.7" y="18" class="st156" width="11.6" height="13.5"/>
				<rect x="80.7" y="2.3" class="st156" width="11.6" height="13.4"/>
				<polygon class="st0" points="-0.1,31.5 2.4,31.5 2.4,18 -0.1,18 -0.1,15.7 2.4,15.7 2.4,2.3 1,2.3 1,1.6 -5,1.6 -5,49.9 
					2.4,49.9 2.4,33.7 -0.1,33.7 				"/>
				<polygon class="st0" points="78.8,15.7 2.4,15.7 -0.1,15.7 -0.1,18 2.4,18 78.8,18 				"/>
				<polygon class="st0" points="100.9,-2.5 92.2,-2.5 92.2,2.3 92.2,15.7 92.2,18 92.2,31.4 107,31.4 107,33.7 92.2,33.7 
					92.2,48.6 109.2,48.6 109.2,-2.5 				"/>
				<polygon class="st0" points="107.1,31.5 92.2,31.5 80.7,31.5 78.8,31.5 2.4,31.5 -0.1,31.5 -0.1,33.7 2.4,33.7 78.8,33.7 
					80.7,33.7 92.2,33.7 107.1,33.7 				"/>
				<g>
					<path class="st157" d="M4.5,30v-8.7H12c0.7,0,1.2,0.1,1.5,0.4c0.3,0.3,0.5,0.7,0.5,1.3v2.1c0,0.6-0.1,1-0.5,1.3
						c-0.3,0.3-0.8,0.4-1.5,0.4h-1.1l4,3.3H12l-3.5-3.3H6.5V30H4.5z M11.1,22.8H6.5v2.4h4.5c0.3,0,0.6,0,0.7-0.1
						c0.1-0.1,0.2-0.3,0.2-0.5v-1.1c0-0.2-0.1-0.4-0.2-0.5C11.6,22.9,11.4,22.8,11.1,22.8z"/>
					<path class="st157" d="M15.8,30l4.9-8.7h1.9l5,8.7h-2.3l-1-1.9h-5.5l-1,1.9H15.8z M19.7,26.6h3.8L21.6,23L19.7,26.6z"/>
					<path class="st157" d="M31.9,30v-3.9l-4.5-4.8h2.7l3,3.3l3-3.3h2.4L34,26.1V30H31.9z"/>
					<path class="st157" d="M48.3,22.9h-5.6v1.9H48c0.8,0,1.4,0.2,1.7,0.4c0.3,0.3,0.4,0.8,0.4,1.6V28c0,0.8-0.1,1.3-0.4,1.6
						C49.5,29.9,48.9,30,48,30h-5.3c-0.9,0-1.4-0.1-1.7-0.4c-0.3-0.3-0.5-0.8-0.5-1.6v-0.2l1.8-0.3v1h6.1v-2H43
						c-0.8,0-1.4-0.1-1.7-0.4c-0.3-0.3-0.4-0.8-0.4-1.6v-1c0-0.8,0.1-1.3,0.4-1.6c0.3-0.3,0.9-0.4,1.7-0.4h4.9
						c0.8,0,1.4,0.2,1.7,0.4c0.3,0.3,0.5,0.8,0.5,1.5v0.2l-1.8,0.4V22.9z"/>
					<path class="st157" d="M52.5,30l4.9-8.7h2l5,8.7H62l-1-1.9h-5.5l-1,1.9H52.5z M56.3,26.6h3.8L58.3,23L56.3,26.6z"/>
					<path class="st157" d="M67,29.9v-8.7h1.4l6.1,5.1c0.2,0.2,0.4,0.3,0.6,0.5c0.2,0.1,0.3,0.3,0.4,0.5c0-0.5-0.1-0.8-0.1-1
						c0-0.2,0-0.4,0-0.5v-4.5h1.8v8.7h-1.4l-6.4-5.4c-0.1-0.1-0.3-0.2-0.4-0.3c-0.1-0.1-0.2-0.2-0.3-0.3c0,0.3,0,0.5,0,0.8
						c0,0.2,0,0.4,0,0.6v4.7H67z"/>
				</g>
				<rect x="80.7" y="18" class="st158" width="11.5" height="13.5"/>
				<g>
					<path class="st159" d="M89.3,18c0,0-5.1,5.9-8.6,7.8"/>
					<path class="st160" d="M80.7,25.7c3.4-1.9,8.4-7.7,8.5-7.7"/>
					<path class="st161" d="M80.7,25.6C84.1,23.7,89,18,89,18"/>
					<path class="st162" d="M80.7,25.5c3.3-1.9,8.1-7.5,8.2-7.5"/>
					<path class="st163" d="M80.7,25.4c3.3-1.8,8-7.4,8.1-7.4"/>
					<path class="st163" d="M80.7,25.3c3.2-1.8,7.8-7.3,8-7.3"/>
					<path class="st164" d="M80.7,25.1c3.2-1.8,7.7-7.2,7.9-7.2"/>
					<path class="st165" d="M80.7,25c3.1-1.7,7.5-7.1,7.8-7"/>
					<path class="st166" d="M80.7,24.9c3-1.7,7.4-7,7.6-6.9"/>
					<path class="st167" d="M80.7,24.8c3-1.7,7.2-6.9,7.5-6.8"/>
					<path class="st167" d="M80.7,24.7c2.9-1.6,7-6.8,7.4-6.7"/>
					<path class="st168" d="M80.7,24.6c2.9-1.6,6.9-6.7,7.3-6.6"/>
					<path class="st169" d="M80.7,24.4c2.8-1.6,6.7-6.6,7.2-6.5"/>
					<path class="st170" d="M80.7,24.3c2.8-1.5,6.6-6.5,7-6.3"/>
					<path class="st171" d="M80.7,24.2c2.7-1.5,6.4-6.4,6.9-6.2"/>
					<path class="st172" d="M80.7,24.1c2.6-1.5,6.3-6.3,6.8-6.1"/>
					<path class="st173" d="M80.7,24c2.6-1.4,6.1-6.2,6.7-6"/>
					<path class="st174" d="M80.7,23.9c2.5-1.4,6-6.1,6.6-5.9"/>
					<path class="st175" d="M80.7,23.8c2.5-1.4,5.8-6,6.5-5.8"/>
					<path class="st176" d="M80.7,23.6c2.4-1.3,5.6-5.9,6.3-5.7"/>
					<path class="st177" d="M80.7,23.5c2.4-1.3,5.5-5.8,6.2-5.5"/>
					<path class="st178" d="M80.7,23.4c2.3-1.3,5.3-5.7,6.1-5.4"/>
					<path class="st178" d="M80.7,23.3c2.2-1.3,5.2-5.6,6-5.3"/>
					<path class="st179" d="M80.7,23.2c2.2-1.2,5-5.5,5.9-5.2"/>
					<path class="st180" d="M80.7,23.1c2.1-1.2,4.9-5.4,5.7-5.1"/>
					<path class="st181" d="M80.7,22.9c2.1-1.2,4.7-5.3,5.6-5"/>
					<path class="st182" d="M80.7,22.8c2-1.1,4.6-5.2,5.5-4.9"/>
					<path class="st183" d="M80.7,22.7c2-1.1,4.4-5.1,5.4-4.7"/>
					<path class="st183" d="M80.7,22.6c1.9-1.1,4.2-5,5.3-4.6"/>
					<path class="st184" d="M80.7,22.5c1.8-1,4.1-4.9,5.1-4.5"/>
					<path class="st185" d="M80.7,22.4c1.8-1,3.9-4.8,5-4.4"/>
					<path class="st186" d="M80.7,22.3c1.7-1,3.8-4.7,4.9-4.3"/>
					<path class="st187" d="M80.7,22.1c1.7-0.9,3.6-4.6,4.8-4.2"/>
					<path class="st188" d="M80.7,22c1.6-0.9,3.5-4.5,4.7-4"/>
					<path class="st189" d="M80.7,21.9c1.5-0.9,3.3-4.4,4.5-3.9"/>
					<path class="st190" d="M80.7,21.8c1.5-0.8,3.1-4.3,4.4-3.8"/>
					<path class="st191" d="M80.7,21.7c1.4-0.8,3-4.2,4.3-3.7"/>
					<path class="st192" d="M80.7,21.6c1.4-0.8,2.8-4.1,4.2-3.6"/>
					<path class="st193" d="M80.7,21.5c1.3-0.7,2.7-4,4.1-3.5"/>
					<path class="st193" d="M80.7,21.3c1.3-0.7,2.5-3.9,3.9-3.4"/>
					<path class="st194" d="M80.7,21.2c1.2-0.7,2.4-3.8,3.8-3.2"/>
					<path class="st195" d="M80.7,21.1c1.1-0.6,2.2-3.7,3.7-3.1"/>
					<path class="st196" d="M80.7,21c1.1-0.6,2.1-3.5,3.6-3"/>
					<path class="st197" d="M80.7,20.9c1-0.6,1.9-3.4,3.5-2.9"/>
					<path class="st198" d="M80.7,20.8c1-0.5,1.7-3.3,3.3-2.8"/>
					<path class="st198" d="M80.7,20.6c0.9-0.5,1.6-3.2,3.2-2.7"/>
					<path class="st199" d="M80.7,20.5c0.9-0.5,1.4-3.1,3.1-2.5"/>
					<path class="st200" d="M80.7,20.4c0.8-0.4,1.3-3,3-2.4"/>
					<path class="st201" d="M80.7,20.3c0.7-0.4,1.1-2.9,2.9-2.3"/>
					<path class="st202" d="M80.7,20.2c0.7-0.4,1-2.8,2.7-2.2"/>
					<path class="st203" d="M80.7,20.1c0.6-0.4,0.8-2.7,2.6-2.1"/>
					<path class="st203" d="M80.7,20c0.6-0.3,0.7-2.6,2.5-2"/>
					<path class="st204" d="M80.7,19.8c0.5-0.3,0.5-2.5,2.4-1.9"/>
					<path class="st205" d="M80.7,19.7c0.5-0.3,0.3-2.4,2.3-1.7"/>
					<path class="st206" d="M80.7,19.6c0.4-0.2,0.2-2.3,2.1-1.6"/>
					<path class="st207" d="M80.7,19.5c0.3-0.2,0-2.2,2-1.5"/>
					<path class="st208" d="M80.7,19.4c0.3-0.2-0.1-2.1,1.9-1.4"/>
					<path class="st208" d="M80.7,19.3c0.2-0.1-0.3-2,1.8-1.3"/>
					<path class="st209" d="M80.7,19.2c0.2-0.1-0.4-1.9,1.7-1.2"/>
					<path class="st210" d="M80.7,19c0.1-0.1-0.6-1.8,1.5-1.1"/>
					<path class="st211" d="M80.7,18.9c0.1,0-0.7-1.7,1.4-0.9"/>
					<path class="st212" d="M80.7,18.8c0,0-0.9-1.6,1.3-0.8"/>
				</g>
				<rect x="80.4" y="15.7" class="st0" width="11.6" height="2.3"/>
				<rect x="78.8" y="16.5" class="st0" width="1.2" height="5.6"/>
				<rect x="-4.5" y="47.3" class="st0" width="98.2" height="3.2"/>
				<g>
					<path class="st213" d="M4.2,29.3v-8.7h7.4c0.7,0,1.2,0.1,1.5,0.4c0.3,0.3,0.5,0.7,0.5,1.3v2c0,0.6-0.2,1-0.5,1.3
						c-0.3,0.3-0.8,0.4-1.5,0.4h-1.1l4,3.3h-2.9L8.1,26H6.1v3.3H4.2z M10.7,22.1H6.1v2.4h4.5c0.3,0,0.6,0,0.7-0.1
						c0.1-0.1,0.2-0.3,0.2-0.5v-1.1c0-0.2-0.1-0.4-0.2-0.5C11.3,22.2,11,22.1,10.7,22.1z"/>
					<path class="st213" d="M15.4,29.3l4.9-8.7h2l5,8.7H25l-1-1.9h-5.5l-1,1.9H15.4z M19.3,25.8h3.8l-1.9-3.5L19.3,25.8z"/>
					<path class="st213" d="M31.5,29.3v-3.9L27,20.6h2.7l3,3.4l3-3.4h2.4l-4.5,4.8v3.9H31.5z"/>
					<path class="st213" d="M47.9,22.2h-5.7V24h5.4c0.8,0,1.4,0.2,1.7,0.4c0.3,0.3,0.4,0.9,0.4,1.6v1.2c0,0.8-0.1,1.3-0.4,1.6
						c-0.3,0.3-0.9,0.4-1.7,0.4h-5.4c-0.9,0-1.4-0.2-1.7-0.4c-0.3-0.3-0.4-0.8-0.4-1.6V27l1.8-0.4v1H48v-1.9h-5.4
						c-0.8,0-1.4-0.2-1.7-0.4c-0.3-0.3-0.4-0.8-0.4-1.6v-1c0-0.8,0.1-1.3,0.4-1.6c0.3-0.3,0.9-0.4,1.7-0.4h4.9
						c0.8,0,1.4,0.2,1.7,0.4c0.3,0.3,0.4,0.8,0.4,1.5v0.2l-1.8,0.4V22.2z"/>
					<path class="st213" d="M52.1,29.3l4.9-8.7h1.9l5,8.7h-2.3l-1-1.9h-5.5l-1,1.9H52.1z M55.9,25.8h3.8l-1.9-3.5L55.9,25.8z"/>
					<path class="st213" d="M66.7,29.3v-8.7h1.4l6.1,5.1c0.2,0.2,0.4,0.3,0.6,0.5c0.2,0.2,0.3,0.3,0.5,0.5c0-0.5-0.1-0.8-0.1-1
						c0-0.2,0-0.3,0-0.5v-4.6h1.8v8.7h-1.4l-6.4-5.4c-0.2-0.1-0.3-0.3-0.4-0.4c-0.1-0.1-0.2-0.2-0.3-0.3c0,0.3,0,0.5,0.1,0.8
						c0,0.2,0,0.5,0,0.6v4.7H66.7z"/>
				</g>
				<g>
					<path class="st158" d="M4.2,29.3v-8.7h7.4c0.7,0,1.2,0.1,1.5,0.4c0.3,0.3,0.5,0.7,0.5,1.3v2c0,0.6-0.2,1-0.5,1.3
						c-0.3,0.3-0.8,0.4-1.5,0.4h-1.1l4,3.3h-2.9L8.1,26H6.2v3.3H4.2z M10.7,22.1H6.2v2.4h4.5c0.3,0,0.6,0,0.7-0.1
						c0.1-0.1,0.2-0.3,0.2-0.5v-1c0-0.3-0.1-0.4-0.2-0.5C11.3,22.2,11,22.1,10.7,22.1z"/>
					<path class="st158" d="M15.4,29.3l4.9-8.7h2l5,8.7H25l-1-1.9h-5.5l-1,1.9H15.4z M19.3,25.8h3.8l-1.9-3.5L19.3,25.8z"/>
					<path class="st158" d="M31.5,29.3v-3.9l-4.5-4.8h2.7l3,3.3l3-3.3h2.4l-4.5,4.7v4H31.5z"/>
					<path class="st158" d="M47.9,22.1h-5.7V24h5.4c0.8,0,1.4,0.1,1.7,0.4c0.3,0.3,0.4,0.8,0.4,1.6v1.2c0,0.8-0.1,1.3-0.4,1.6
						c-0.3,0.3-0.9,0.4-1.7,0.4h-5.4c-0.8,0-1.4-0.2-1.7-0.4c-0.3-0.3-0.5-0.8-0.5-1.6V27l1.8-0.3v1H48v-1.9h-5.4
						c-0.8,0-1.4-0.1-1.7-0.4c-0.3-0.3-0.4-0.8-0.4-1.6v-0.9c0-0.8,0.1-1.3,0.4-1.6c0.3-0.3,0.9-0.4,1.7-0.4h4.9
						c0.8,0,1.4,0.1,1.7,0.4c0.3,0.3,0.5,0.8,0.5,1.5v0.2l-1.8,0.4V22.1z"/>
					<path class="st158" d="M52.1,29.3l4.9-8.7h1.9l5,8.7h-2.3l-1-1.9h-5.5l-1,1.9H52.1z M56,25.8h3.8l-1.9-3.5L56,25.8z"/>
					<path class="st158" d="M66.7,29.3v-8.7h1.4l6.1,5.1c0.2,0.2,0.4,0.3,0.5,0.5c0.2,0.1,0.3,0.3,0.4,0.5c0-0.5,0-0.8-0.1-1
						c0-0.2,0-0.4,0-0.5v-4.6h1.8v8.7h-1.4l-6.4-5.4c-0.2-0.1-0.3-0.3-0.4-0.4c-0.1-0.1-0.2-0.2-0.3-0.4c0,0.3,0,0.5,0.1,0.8
						c0,0.2,0,0.5,0,0.6v4.7H66.7z"/>
				</g>
				<g>
					<rect x="92.1" y="2.7" class="st214" width="0.5" height="13.4"/>
					<rect x="81.1" y="15.7" class="st214" width="11.5" height="0.5"/>
				</g>
				<g>
					<rect x="92.2" y="18.5" class="st214" width="0.5" height="13.4"/>
					<rect x="81.2" y="31.5" class="st214" width="11.5" height="0.5"/>
				</g>
				<g>
					<rect x="92.2" y="34.3" class="st214" width="0.5" height="13.4"/>
					<rect x="81.1" y="47.3" class="st214" width="11.5" height="0.4"/>
				</g>
				<g>
					<path class="st215" d="M89.3,2.2c0,0-2.9,3-8.6,7.8"/>
					<path class="st216" d="M80.7,10c5.6-4.8,8.5-7.7,8.5-7.7"/>
					<path class="st217" d="M80.7,9.9c5.5-4.7,8.3-7.6,8.4-7.6"/>
					<path class="st218" d="M80.7,9.7c5.5-4.6,8.2-7.5,8.3-7.5"/>
					<path class="st219" d="M80.7,9.6c5.4-4.5,8-7.4,8.1-7.4"/>
					<path class="st220" d="M80.7,9.5c5.3-4.4,7.8-7.3,8-7.3"/>
					<path class="st221" d="M80.7,9.4c5.2-4.4,7.7-7.2,7.9-7.1"/>
					<path class="st222" d="M80.7,9.3c5.1-4.3,7.5-7.1,7.8-7"/>
					<path class="st223" d="M80.7,9.2c5-4.2,7.4-7,7.7-6.9"/>
					<path class="st224" d="M80.7,9c4.9-4.1,7.2-6.9,7.5-6.8"/>
					<path class="st225" d="M80.7,8.9c4.8-4,7.1-6.8,7.4-6.7"/>
					<path class="st226" d="M80.7,8.8c4.7-4,6.9-6.7,7.3-6.6"/>
					<path class="st227" d="M80.7,8.7c4.6-3.9,6.7-6.6,7.2-6.5"/>
					<path class="st228" d="M80.7,8.6c4.5-3.8,6.6-6.5,7.1-6.3"/>
					<path class="st229" d="M80.7,8.5c4.4-3.7,6.4-6.4,6.9-6.2"/>
					<path class="st230" d="M80.7,8.4C85,4.7,87,2.1,87.5,2.2"/>
					<path class="st231" d="M80.7,8.2c4.2-3.6,6.1-6.2,6.7-6"/>
					<path class="st232" d="M80.7,8.1c4.1-3.5,6-6.1,6.6-5.9"/>
					<path class="st233" d="M80.7,8c4-3.4,5.8-6,6.5-5.8"/>
					<path class="st234" d="M80.7,7.9C84.6,4.6,86.3,2,87,2.2"/>
					<path class="st235" d="M80.7,7.8c3.9-3.2,5.5-5.8,6.2-5.5"/>
					<path class="st236" d="M80.7,7.7C84.4,4.5,86,2,86.8,2.2"/>
					<path class="st237" d="M80.7,7.6c3.7-3.1,5.2-5.6,6-5.3"/>
					<path class="st238" d="M80.7,7.4c3.6-3,5-5.5,5.9-5.2"/>
					<path class="st239" d="M80.7,7.3c3.5-2.9,4.9-5.4,5.8-5.1"/>
					<path class="st240" d="M80.7,7.2c3.4-2.9,4.7-5.3,5.6-5"/>
					<path class="st241" d="M80.7,7.1c3.3-2.8,4.6-5.2,5.5-4.8"/>
					<path class="st242" d="M80.7,7c3.2-2.7,4.4-5.1,5.4-4.7"/>
					<path class="st243" d="M80.7,6.9c3.1-2.6,4.2-5,5.3-4.6"/>
					<path class="st244" d="M80.7,6.7c3-2.5,4.1-4.9,5.2-4.5"/>
					<path class="st245" d="M80.7,6.6c2.9-2.5,3.9-4.8,5-4.4"/>
					<path class="st246" d="M80.7,6.5c2.8-2.4,3.8-4.7,4.9-4.3"/>
					<path class="st247" d="M80.7,6.4c2.7-2.3,3.6-4.6,4.8-4.2"/>
					<path class="st248" d="M80.7,6.3c2.6-2.2,3.5-4.5,4.7-4"/>
					<path class="st249" d="M80.7,6.2C83.2,4,84,1.8,85.2,2.2"/>
					<path class="st250" d="M80.7,6.1c2.4-2.1,3.2-4.3,4.4-3.8"/>
					<path class="st251" d="M80.7,5.9c2.4-2,3-4.2,4.3-3.7"/>
					<path class="st252" d="M80.7,5.8c2.3-1.9,2.8-4.1,4.2-3.6"/>
					<path class="st253" d="M80.7,5.7c2.2-1.8,2.7-3.9,4.1-3.5"/>
					<path class="st254" d="M80.7,5.6c2.1-1.7,2.5-3.8,4-3.3"/>
					<path class="st255" d="M80.7,5.5c2-1.7,2.4-3.7,3.8-3.2"/>
					<path class="st256" d="M80.7,5.4c1.9-1.6,2.2-3.6,3.7-3.1"/>
					<path class="st257" d="M80.7,5.3c1.8-1.5,2.1-3.5,3.6-3"/>
					<path class="st258" d="M80.7,5.1c1.7-1.4,1.9-3.4,3.5-2.9"/>
					<path class="st259" d="M80.7,5c1.6-1.3,1.7-3.3,3.4-2.8"/>
					<path class="st260" d="M80.7,4.9c1.5-1.3,1.6-3.2,3.2-2.7"/>
					<path class="st261" d="M80.7,4.8c1.4-1.2,1.4-3.1,3.1-2.5"/>
					<path class="st262" d="M80.7,4.7c1.3-1.1,1.3-3,3-2.4"/>
					<path class="st263" d="M80.7,4.6c1.2-1,1.1-2.9,2.9-2.3"/>
					<path class="st264" d="M80.7,4.5c1.1-1,1-2.8,2.8-2.2"/>
					<path class="st265" d="M80.7,4.3c1-0.9,0.8-2.7,2.6-2.1"/>
					<path class="st266" d="M80.7,4.2c0.9-0.8,0.7-2.6,2.5-2"/>
					<path class="st267" d="M80.7,4.1c0.8-0.7,0.5-2.5,2.4-1.9"/>
					<path class="st268" d="M80.7,4C81.4,3.4,81,1.6,83,2.2"/>
					<path class="st269" d="M80.7,3.9c0.7-0.6,0.2-2.3,2.2-1.6"/>
					<path class="st270" d="M80.7,3.8c0.6-0.5,0-2.2,2-1.5"/>
					<path class="st271" d="M80.7,3.6c0.5-0.4-0.1-2.1,1.9-1.4"/>
					<path class="st272" d="M80.7,3.5c0.4-0.3-0.3-2,1.8-1.3"/>
					<path class="st273" d="M80.7,3.4c0.3-0.2-0.4-1.9,1.7-1.2"/>
					<path class="st274" d="M80.7,3.3c0.2-0.2-0.6-1.8,1.6-1.1"/>
					<path class="st275" d="M80.7,3.2c0.1-0.1-0.8-1.7,1.4-0.9"/>
					<path class="st276" d="M80.7,3.1c0,0-0.9-1.6,1.3-0.8"/>
				</g>
				<rect x="0.4" y="-7.7" class="st0" width="99.2" height="10"/>
				<rect x="78.8" y="1.7" class="st0" width="1.9" height="51.4"/>
				<g>
					<rect x="2.8" y="15.7" class="st214" width="76.4" height="0.5"/>
					<rect x="78.8" y="2.7" class="st214" width="0.5" height="13.4"/>
				</g>
				<g>
					<rect x="2.8" y="31.4" class="st214" width="76.4" height="0.5"/>
					<rect x="78.8" y="18.5" class="st214" width="0.5" height="13.5"/>
				</g>
				<g>
					<rect x="2.8" y="47.3" class="st214" width="76.4" height="0.5"/>
					<rect x="78.8" y="34.3" class="st214" width="0.5" height="13.4"/>
				</g>
			</g>
		</g>
	</g>
</g>
</svg>
